obfs4 192.95.36.142:443 CDF2E852BF539B82BD10E27E9115A31734E378C2 cert=qUVQ0srL1JI/vO6V6m/24anYXiJD3QP2HgzUKQtQ7GRqqUvs7P+tG43RtAqdhLOALP7DJQ iat-mode=1
obfs4 38.229.1.78:80 C8CBDB2464FC9804A69531437BCF2BE31FDD2EE4 cert=Hmyfd2ev46gGY7NoVxA9ngrPF2zCZtzskRTzoWXbxNkzeVnGFPWmrTtILRyqCTjHR+s9dg iat-mode=1
obfs4 [2001:470:b381:bfff:216:3eff:fe23:d6c3]:443 CDF2E852BF539B82BD10E27E9115A31734E378C2 cert=qUVQ0srL1JI/vO6V6m/24anYXiJD3QP2HgzUKQtQ7GRqqUvs7P+tG43RtAqdhLOALP7DJQ iat-mode=1
obfs4 37.218.240.34:40035 88CD36D45A35271963EF82E511C8827A24730913 cert=eGXYfWODcgqIdPJ+rRupg4GGvVGfh25FWaIXZkit206OSngsp7GAIiGIXOJJROMxEqFKJg iat-mode=1
obfs4 37.218.245.14:38224 D9A82D2F9C2F65A18407B1D2B764F130847F8B5D cert=bjRaMrr1BRiAW8IE9U5z27fQaYgOhX1UCmOpg2pFpoMvo6ZgQMzLsaTzzQNTlm7hNcb+Sg iat-mode=0
obfs4 85.31.186.98:443 011F2599C0E9B27EE74B353155E244813763C3E5 cert=ayq0XzCwhpdysn5o0EyDUbmSOx3X/oTEbzDMvczHOdBJKlvIdHHLJGkZARtT4dcBFArPPg iat-mode=0
obfs4 85.31.186.26:443 91A6354697E6B02A386312F68D82CF86824D3606 cert=PBwr+S8JTVZo6MPdHnkTwXJPILWADLqfMGoVvhZClMq/Urndyd42BwX9YFJHZnBB3H0XCw iat-mode=0
obfs4 216.252.162.21:46089 0DB8799466902192B6C7576D58D4F7F714EC87C1 cert=XPUwcQPxEXExHfJYX58gZXN7mYpos7VNAHbkgERNFg+FCVNzuYo1Wp+uMscl3aR9hO2DRQ iat-mode=0
obfs4 144.217.20.138:80 FB70B257C162BF1038CA669D568D76F5B7F0BABB cert=vYIV5MgrghGQvZPIi1tJwnzorMgqgmlKaB77Y3Z9Q/v94wZBOAXkW+fdx4aSxLVnKO+xNw iat-mode=0
obfs4 193.11.166.194:27015 2D82C2E354D531A68469ADF7F878FA6060C6BACA cert=4TLQPJrTSaDffMK7Nbao6LC7G9OW/NHkUwIdjLSS3KYf0Nv4/nQiiI8dY2TcsQx01NniOg iat-mode=0
obfs4 193.11.166.194:27020 86AC7B8D430DAC4117E9F42C9EAED18133863AAF cert=0LDeJH4JzMDtkJJrFphJCiPqKx7loozKN7VNfuukMGfHO0Z8OGdzHVkhVAOfo1mUdv9cMg iat-mode=0
obfs4 193.11.166.194:27025 1AE2C08904527FEA90C4C4F8C1083EA59FBC6FAF cert=ItvYZzW5tn6v3G4UnQa6Qz04Npro6e81AP70YujmK/KXwDFPTs3aHXcHp4n8Vt6w/bv8cA iat-mode=0
meek_lite 0.0.2.0:2 97700DFE9F483596DDA6264C4D7DF7641E1E39CE url=https://meek.azureedge.net/ front=ajax.aspnetcdn.com
